0000 0000 0000 0000 0000 0000 0000 0000	0000 0000 0000 0000 0000 0000 0000 0000	0000 0000 0000 0000 0000 0000 0000 0000	0000 0000 0000 0000 0000 0000 0000 0000	0000 0000 0000 0000 0000 0000 0000 0000	0000 0000 0000 0000 0000 0000 0000 0000	0000 0000 0000 0000 0000 0000 0000 0000	0000 0000 0000 0000 0000 0000 0000 0000	0000 0000 0000 0000	0000 0000 0000 0000 0000 0000 0000 0000	0000 0000 0000 0000 0000 0100 0011 0011
0000 0000 0000 0000 0000 0000 0000 0000	0000 0000 0000 0000 0000 0000 0000 0000	0000 0000 0000 0000 0000 0000 0000 0000	0000 0000 0000 0000 0000 0000 0000 0000	0000 0000 0000 0000 0000 0000 0000 0000	0000 0000 0000 0000 0000 0000 0000 0000	0000 0000 0000 0000 0000 0000 0000 0000	0000 0000 0000 0000 0000 0000 0000 0000	0000 0000 0000 0001	0000 0000 0000 0000 0000 0000 0000 0001	1111 1111 1111 0000 0000 0101 0001 0011
0000 0000 0000 0000 0000 0000 0000 0000	0000 0000 0000 0000 0000 0000 0000 0000	0000 0000 0000 0000 0000 0000 0000 0000	0000 0000 0000 0000 0000 0000 0000 0000	0000 0000 0000 0000 0000 0000 0000 0000	0000 0000 0000 0000 0000 0000 0000 0000	0000 0000 0000 0000 0000 0000 0000 0000	0000 0000 0000 0000 0000 0000 0000 0000	0000 0000 0000 0010	0000 0000 0000 0000 0000 0000 0000 0010	0000 0000 1010 0100 0000 1010 0110 0011
0000 0000 0000 0000 0000 0000 0000 0000	0000 0000 0000 0000 0000 0000 0000 0000	0000 0000 0000 0000 0000 0000 0000 0000	0000 0000 0000 0000 0000 0000 0000 0000	0000 0000 0000 0000 0000 0000 0000 0000	0000 0000 0000 0000 0000 0000 0000 0000	0000 0000 0000 0000 0000 0000 0000 0000	1111 1111 1111 1111 1111 1111 1111 1111	0000 0000 0000 0011	0000 0000 0000 0000 0000 0000 0000 0011	1111 1111 1111 0100 0000 0100 0001 0011
0000 0000 0000 0000 0000 0000 0000 0000	0000 0000 0000 0000 0000 0000 0000 0000	0000 0000 0000 0000 0000 0000 0000 0000	0000 0000 0000 0000 0000 0000 0000 0000	0000 0000 0000 0000 0000 0000 0000 0000	0000 0000 0000 0000 0000 0000 0000 0000	0000 0000 0000 0000 0000 0000 0000 0000	1111 1111 1111 1111 1111 1111 1111 1111	0000 0000 0000 0100	0000 0000 0000 0000 0000 0000 0000 0100	0000 0000 0000 0000 0000 0100 1011 0111
0000 0000 0000 0000 0000 0000 0000 0000	0000 0000 0000 0000 0000 0000 0000 0000	0000 0000 0000 0000 0000 0000 0000 0000	0000 0000 0000 0000 0000 0000 0000 0000	0000 0000 0000 0000 0000 0000 0000 0000	1111 1111 1111 1111 1111 1111 1111 1111	0000 0000 0000 0000 0000 0000 0000 0000	1111 1111 1111 1111 1111 1111 1111 1111	0000 0000 0000 0101	0000 0000 0000 0000 0000 0000 0000 0101	0000 0010 0100 0100 1000 0100 1001 0011
0000 0000 0000 0000 0000 0000 0000 0000	0000 0000 0000 0000 0000 0000 0000 0000	0000 0000 0000 0000 0000 0000 0000 0000	0000 0000 0000 0000 0000 0000 0000 0000	0000 0000 0000 0000 0000 0000 0000 0000	1111 1111 1111 1111 1111 1111 1111 1111	0000 0000 0000 0000 0000 0000 0000 0000	1111 1111 1111 1111 1111 1111 1111 1111	0000 0000 0000 0110	0000 0000 0000 0000 0000 0000 0000 0110	0000 0000 0000 0100 1000 0000 0110 0111
0000 0000 0000 0000 0000 0000 0000 0000	0000 0000 0000 0000 0000 0000 0000 0000	0000 0000 0000 0000 0000 0000 0000 0000	0000 0000 0000 0000 0000 0000 0000 0000	0000 0000 0000 0000 0000 0000 0000 0000	1111 1111 1111 1111 1111 1111 1111 1111	0000 0000 0000 0000 0000 0000 0010 0100	1111 1111 1111 1111 1111 1111 1111 1111	0000 0000 0000 0111	0000 0000 0000 0000 0000 0000 0000 0111	0000 0000 0001 0100 0000 0100 0001 0011
0000 0000 0000 0000 0000 0000 0000 0000	0000 0000 0000 0000 0000 0000 0000 0000	0000 0000 0000 0000 0000 0000 0000 0000	0000 0000 0000 0000 0000 0000 0000 0000	0000 0000 0000 0000 0000 0000 0000 0000	1111 1111 1111 1111 1111 1111 1111 1111	0000 0000 0000 0000 0000 0000 0010 0100	1111 1111 1111 1111 1111 1111 1111 1111	0000 0000 0000 1000	0000 0000 0000 0000 0000 0000 0000 0000	0000 0000 0000 0000 0000 0100 0011 0011
0000 0000 0000 0000 0000 0000 0000 0000	0000 0000 0000 0000 0000 0000 0000 0000	0000 0000 0000 0000 0000 0000 0000 0000	0000 0000 0000 0000 0000 0000 0000 0000	0000 0000 0000 0000 0000 0000 0000 0000	1111 1111 1111 1111 1111 1111 1111 1111	0000 0000 0000 0000 0000 0000 0010 0100	1111 1111 1111 1111 1111 1111 1111 1111	0000 0000 0000 1001	0000 0000 0000 0000 0000 0000 0000 0001	1111 1111 1111 0000 0000 0101 0001 0011
0000 0000 0000 0000 0000 0000 0000 0000	0000 0000 0000 0000 0000 0000 0000 0000	0000 0000 0000 0000 0000 0000 0000 0000	0000 0000 0000 0000 0000 0000 0000 0000	0000 0000 0000 0000 0000 0000 0000 0000	0000 0000 0000 0000 0000 0000 0000 0000	0000 0000 0000 0000 0000 0000 0010 0100	1111 1111 1111 1111 1111 1111 1111 1111	0000 0000 0000 1010	0000 0000 0000 0000 0000 0000 0000 0010	0000 0000 1010 0100 0000 1010 0110 0011
